Event_Name,Event_Category,Venue_Name,Venue_Capacity,Event_City,Event_Region,Event_Date,Days_On_Market
Luke Bryan: What Makes You Country Tour 2018,NULL,AT&T Center,18797,San Antonio,TX,September,86
Aladdin (Touring),NULL,Kentucky Center - Whitney Hall,2377,Louisville,KY,October,121
Aladdin (Touring),NULL,Kentucky Center - Whitney Hall,2377,Louisville,KY,October,123
Aladdin (Touring),NULL,Kentucky Center - Whitney Hall,2377,Louisville,KY,October,123
Aladdin (Touring),NULL,Kentucky Center - Whitney Hall,2377,Louisville,KY,October,130
Aladdin (Touring),NULL,Kentucky Center - Whitney Hall,2377,Louisville,KY,October,131
Aladdin (Touring),NULL,Kentucky Center - Whitney Hall,2377,Louisville,KY,October,120
Aladdin (Touring),NULL,Kentucky Center - Whitney Hall,2377,Louisville,KY,October,124
Aladdin (Touring),NULL,Kentucky Center - Whitney Hall,2377,Louisville,KY,October,127
Aladdin (Touring),NULL,Kentucky Center - Whitney Hall,2377,Louisville,KY,October,128
Aladdin (Touring),NULL,Kentucky Center - Whitney Hall,2377,Louisville,KY,October,129
Aladdin (Touring),NULL,Kentucky Center - Whitney Hall,2377,Louisville,KY,October,130
Aladdin (Touring),NULL,Kentucky Center - Whitney Hall,2377,Louisville,KY,October,131
Aladdin (Touring),NULL,Kentucky Center - Whitney Hall,2377,Louisville,KY,October,121
Aladdin (Touring),NULL,Kentucky Center - Whitney Hall,2377,Louisville,KY,October,122
Aladdin (Touring),NULL,Kentucky Center - Whitney Hall,2377,Louisville,KY,October,124
Aladdin (Touring),NULL,Kentucky Center - Whitney Hall,2377,Louisville,KY,October,126
Back to the Eighties Show with Jessies Girl,NULL,NULL,NULL,Montclair,NJ,September,101
Bret Michaels The Party Starts Now,NULL,Sound Board at MotorCity Casino Hotel,NULL,Detroit,MI,December,197
Dean Lives: A Salute to Dean Martin,NULL,Lynn Memorial Auditorium,NULL,Lynn,MA,October,130
Lynyrd Skynyrd Pre Show Dinner & Drinks,NULL,Huntington Center,NULL,Toledo,OH,October,130
Lynyrd Skynyrd:  Last Of The Street Survivors Farewell Tour,NULL,1st Mariner Arena,14000,Baltimore,MD,November,157
Lynyrd Skynyrd: Last of the Street Survivors Farewell Tour,NULL,Big Sandy Superstore Arena,9000,Huntington,WV,November,158
Lynyrd Skynyrd: Last of the Street Survivors Farewell Tour,NULL,Boardwalk Hall,17000,Atlantic City,NJ,December,172
Lynyrd Skynyrd Pre Show Dinner & Drinks,NULL,Huntington Center,NULL,Toledo,OH,October,130
Lynyrd Skynyrd: Last of the Street Survivors Farewell Tour,NULL,KFC Yum! Center,NULL,Louisville,KY,November,151
Lynyrd Skynyrd: Last of the Street Survivors Farewell Tour,NULL,Mohegan Sun Arena at Casey Plaza,NULL,Wilkes-Barre,PA,November,171
Lynyrd Skynyrd: Last of the Street Survivors Farewell Tour,NULL,Van Andel Arena,13184,Grand Rapids,MI,November,150
Matthew West,Christian,Canfield Fairgrounds,NULL,Canfield,OH,September,82
"MJ Live, The #1 Michael Jackson Tribute Concert",NULL,Sound Board at MotorCity Casino Hotel,NULL,Detroit,MI,January,229
Sesame Street,NULL,PPL Center,NULL,Allentown,PA,October,137
Sesame Street Live!,NULL,XL Center,16294,Hartford,CT,November,150
Sesame Street Live! Lets Party!,NULL,Cambria County War Memorial Arena,NULL,Johnstown,PA,October,136
Sesame Street Live! Lets Party!,NULL,Cambria County War Memorial Arena,NULL,Johnstown,PA,October,136
Sesame Street Live! Lets Party!,NULL,Allen County War Memorial Coliseum,13000,Fort Wayne,IN,September,110
Sesame Street Live! Lets Party!,NULL,Allen County War Memorial Coliseum,13000,Fort Wayne,IN,September,110
Sesame Street Live! Lets Party!,NULL,Boardwalk Hall,17000,Atlantic City,NJ,November,144
Sesame Street Live! Lets Party!,NULL,Boardwalk Hall,17000,Atlantic City,NJ,November,145
Sesame Street Live! Lets Party!,NULL,Boardwalk Hall,17000,Atlantic City,NJ,November,145
Sesame Street Live! Lets Party!,NULL,Boardwalk Hall,17000,Atlantic City,NJ,November,144
Sesame Street Live! Lets Party!,NULL,Mohegan Sun Arena at Casey Plaza,NULL,Wilkes-Barre,PA,November,142
Sesame Street Live! Lets Party!,NULL,Mohegan Sun Arena at Casey Plaza,NULL,Wilkes-Barre,PA,November,142
Sesame Street Live! Lets Party!,NULL,Seagate Center,NULL,Toledo,OH,October,130
Sesame Street Live! Lets Party!,NULL,Seagate Center,NULL,Toledo,OH,October,131
Sesame Street Live! Lets Party!,NULL,Seagate Center,NULL,Toledo,OH,October,131
Sesame Street Live! Lets Party!,NULL,Seagate Center,NULL,Toledo,OH,October,130
Sesame Street Live! Lets Party!,NULL,Modell Performing Arts Center at the Lyric,2546,Baltimore,MD,November,158
Sesame Street Live! Lets Party!,NULL,Modell Performing Arts Center at the Lyric,2546,Baltimore,MD,November,157
Sesame Street Live! Lets Party!,NULL,Modell Performing Arts Center at the Lyric,2546,Baltimore,MD,November,158
Sesame Street Live! Elmo & Friends Meet & Greet! From 9:30am-10:00am,NULL,UCF Arena,NULL,Orlando,FL,November,144
Sesame Street Live! Elmo & Friends Meet & Greet! From 9:30am-10:00am,NULL,UCF Arena,NULL,Orlando,FL,November,145
Sesame Street Live! Elmo & Friends Meet & Greet! From  1:30pm-2:00pm,NULL,UCF Arena,NULL,Orlando,FL,November,144
Sesame Street Live! Elmo & Friends Meet & Greet! From 1:30pm-2:00pm,NULL,UCF Arena,NULL,Orlando,FL,November,145
Sesame Street Live! Elmo & Friends Meet & Greet! From  5-5:30pm,NULL,Cobb Energy Performing Arts Centre,2750,Atlanta,GA,November,157
Sesame Street Live! Elmo & Friends Meet & Greet! From  1-1:30pm,NULL,Cobb Energy Performing Arts Centre,2750,Atlanta,GA,November,158
Sesame Street Live! Elmo & Friends Meet & Greet! From  1-1:30pm,NULL,Cobb Energy Performing Arts Centre,2750,Atlanta,GA,November,159
Sesame Street Live! Make Your Magic,NULL,Cobb Energy Performing Arts Centre,2750,Atlanta,GA,November,157
Sesame Street Live! Make Your Magic,NULL,Cobb Energy Performing Arts Centre,2750,Atlanta,GA,November,158
Sesame Street Live! Elmo & Friends Meet & Greet! From 1:30pm-2pm,NULL,DeVos Performance Hall,2404,Grand Rapids,MI,December,201
Sesame Street Live! Elmo & Friends Meet & Greet! From 9:30am-10am,NULL,DeVos Performance Hall,2404,Grand Rapids,MI,December,201
Sesame Street Live! Elmo & Friends Meet & Greet! From 1:30pm-2pm,NULL,DeVos Performance Hall,2404,Grand Rapids,MI,December,200
Sesame Street Live! Elmo & Friends Meet & Greet! From 9:30am-10am,NULL,DeVos Performance Hall,2404,Grand Rapids,MI,December,200
Sesame Street Live! Elmo & Friends Meet & Greet! From 1:30 - 2:00 PM,NULL,Dow Event Center,7647,Saginaw,MI,December,198
Sesame Street Live! Elmo & Friends Meet & Greet! From 9:30 - 10:00 AM,NULL,Dow Event Center,7647,Saginaw,MI,December,198
Sesame Street Live! Make Your Magic,NULL,Times Union Perf. Arts-Moran,2979,Jacksonville,FL,October,138
Sesame Street Live! Make Your Magic,NULL,Times Union Perf. Arts-Moran,2979,Jacksonville,FL,October,138
Sesame Street Live! Make Your Magic,NULL,Times Union Perf. Arts-Moran,2979,Jacksonville,FL,October,138
Sesame Street Live! Elmo & Friends Meet & Greet! From 5:00PM - 5:30PM,NULL,USF Sun Dome,55000,Tampa,FL,October,122
Sesame Street Live! Elmo & Friends Meet & Greet! From 1:30PM - 2:00PM,NULL,USF Sun Dome,55000,Tampa,FL,October,123
Sesame Street Live! Elmo & Friends Meet & Greet! From 9:30AM - 10:00AM,NULL,USF Sun Dome,55000,Tampa,FL,October,123
Sesame Street Live! Elmo & Friends Meet & Greet! From 9:30AM - 10:00AM,NULL,USF Sun Dome,55000,Tampa,FL,October,124
Sesame Street Live! Make Your Magic,NULL,NULL,NULL,Coral Gables,FL,October,135
Sesame Street Live! Make Your Magic,NULL,NULL,NULL,Coral Gables,FL,October,136
Sesame Street Live! Make Your Magic!,NULL,NULL,NULL,Duluth,GA,November,150
Sesame Street Live! Make Your Magic!,NULL,NULL,NULL,Duluth,GA,November,151
Sesame Street Live! Make Your Magic!,NULL,NULL,NULL,Duluth,GA,November,152
Sesame Street Live! Make Your Magic!,NULL,NULL,NULL,Duluth,GA,November,151
Sesame Street Live!: Preshow Experience From 4:15 PM To 5:00 PM,NULL,Mohegan Sun Arena at Casey Plaza,NULL,Wilkes-Barre,PA,November,142
Sesame Street Live!: Preshow Experience From 9:15 AM To 10:00 AM,NULL,Mohegan Sun Arena at Casey Plaza,NULL,Wilkes-Barre,PA,November,142
The King Romeo Santos,NULL,Tampa Bay Times Forum,20500,Tampa,FL,October,122
The King Romeo Santos,NULL,American Airlines Arena - FL,20000,Miami,FL,October,121
The King Romeo Santos,NULL,Barclays Center,18103,Brooklyn,NY,October,117
The King Romeo Santos,NULL,Patriot Center,10000,Fairfax,VA,October,124
The King Romeo Santos,NULL,Greensboro Coliseum Arena,NULL,Greensboro,NC,September,109
The King Romeo Santos,NULL,Prudential Center,NULL,Newark,NJ,October,114
Transviolet at Songbyrd,NULL,Songbyrd Music House,NULL,Washington,DC,June,0
Wanna One,K-Pop,Cobb Energy Performing Arts Centre,2750,Atlanta,GA,July,20
Philadelphia College Hockey Faceoff: Penn State vs. Princeton,NULL,Wells Fargo Center-PA,19500,Philadelphia,PA,December,186
Aubrey & The Three Migos Tour,NULL,Barclays Center,18103,Brooklyn,NY,September,81
Ben Rector,Pop,The Mill & Mine,NULL,Knoxville,TN,October,135
Ben Rector,Pop,The Mill & Mine,NULL,Knoxville,TN,October,136
GHOST,Metal,Place Bell,NULL,Laval,QC,December,178
GHOST: A Pale Tour Named Death,NULL,Wang Theatre,3600,Boston,MA,December,185
GHOST: A Pale Tour Named Death,NULL,Coca-Cola Roxy,NULL,Atlanta,GA,November,171
"Its Britney, B! PRISM Pride Party ft. Derrick Barry",NULL,20 Monroe Live,2600,Grand Rapids,MI,August,53
Kristin Chenoweth,Adult Contemporary,McCoy Center,NULL,New Albany,OH,September,103
Rhett & Link,Reality,Caesars Atlantic City,NULL,Atlantic City,NJ,November,150
Rhett & Links Tour of Mythicality,NULL,Sony Centre for the Performing Arts,3191,Toronto,ON,November,149
Ron White,Comedy,NULL,NULL,Cherokee,NC,September,88
Sesame Street Live! Lets Party!,NULL,Allen County War Memorial Coliseum,13000,Fort Wayne,IN,September,110
The Sheepdogs & Shakey Graves,NULL,Echo Beach,NULL,Toronto,ON,September,100
Thomas Rhett: Life Changes Tour 2018,NULL,Bryce Jordan Center,16000,University Park,PA,September,107
25th PBR: Unleash the Beast,NULL,Wisconsin Entertainment and Sports Center,NULL,Milwaukee,WI,October,116
25th PBR: Unleash the Beast,NULL,Wisconsin Entertainment and Sports Center,NULL,Milwaukee,WI,October,117
Colin Mochrie & Brad Sherwood: The Scared Scriptless Tour,NULL,Genesee Theatre,2433,Waukegan,IL,September,93
Dsm Oasis Lounge Day Pass,NULL,Music Hall at Fair Park,3420,Dallas,TX,June,15
Dsm Oasis Lounge Day Pass,NULL,Music Hall at Fair Park,3420,Dallas,TX,June,16
Dsm Oasis Lounge Day Pass,NULL,Music Hall at Fair Park,3420,Dallas,TX,July,19
Dsm Oasis Lounge Day Pass,NULL,Music Hall at Fair Park,3420,Dallas,TX,July,19
Dsm Oasis Lounge Day Pass,NULL,Music Hall at Fair Park,3420,Dallas,TX,July,20
Dsm Oasis Lounge Day Pass,NULL,Music Hall at Fair Park,3420,Dallas,TX,July,21
Dsm Oasis Lounge Day Pass,NULL,Music Hall at Fair Park,3420,Dallas,TX,July,24
Dsm Oasis Lounge Day Pass,NULL,Music Hall at Fair Park,3420,Dallas,TX,July,24
Dsm Oasis Lounge Day Pass,NULL,Music Hall at Fair Park,3420,Dallas,TX,June,18
Dsm Oasis Lounge Day Pass,NULL,Music Hall at Fair Park,3420,Dallas,TX,June,18
Dsm Oasis Lounge Day Pass,NULL,Music Hall at Fair Park,3420,Dallas,TX,July,25
Dsm Oasis Lounge Day Pass,NULL,Music Hall at Fair Park,3420,Dallas,TX,July,25
Dsm Oasis Lounge Day Pass,NULL,Music Hall at Fair Park,3420,Dallas,TX,July,21
Dsm Oasis Lounge Day Pass,NULL,Music Hall at Fair Park,3420,Dallas,TX,July,23
Dsm Oasis Lounge Day Pass,NULL,Music Hall at Fair Park,3420,Dallas,TX,June,14
Dsm Oasis Lounge Day Pass,NULL,Music Hall at Fair Park,3420,Dallas,TX,June,17
Jack Daniels Old No. 7 Club pre-show dinner buffet,NULL,Xcel Energy Center,18064,Saint Paul,MN,October,115
k.d. lang,Singer Songwriter,Ryman Auditorium,2362,Nashville,TN,September,96
KIDZ BOP LIVE 2018,NULL,BJCC Concert Hall,17654,Birmingham,AL,October,130
Lynyrd Skynyrd,Classic Rock,Sprint Center,19252,Kansas City,MO,November,143
Lynyrd Skynyrd:  Last Of The Street Survivors Farewell Tour,NULL,Denny Sanford Premier Center,NULL,Sioux Falls,SD,October,122
Lynyrd Skynyrd: Last of the Street Survivors Farewell Tour,NULL,Bridgestone Arena,20000,Nashville,TN,October,136
Lynyrd Skynyrd: Last of the Street Survivors Farewell Tour,NULL,Ford Center-Evansville,NULL,Evansville,IN,October,137
Lynyrd Skynyrd: Last of the Street Survivors Farewell Tour,NULL,Mississippi Coast Coliseum,11500,Biloxi,MS,December,179
Lynyrd Skynyrd: Last of the Street Survivors Farewell Tour,NULL,Peoria Civic Center-Arena,11442,Peoria,IL,November,144
Lynyrd Skynyrd: Last of the Street Survivors Farewell Tour,NULL,Pinnacle Bank Arena,NULL,Lincoln,NE,October,116
Lynyrd Skynyrd: Last of the Street Survivors Farewell Tour,NULL,Baton Rouge River Center Arena,1900,Baton Rouge,LA,December,178
Lynyrd Skynyrd: Last of the Street Survivors Farewell Tour,NULL,U.S. Cellular Center - Cedar Rapids,NULL,Cedar Rapids,IA,October,123
Jack Daniels Old No. 7 Club pre-show dinner buffet,NULL,Xcel Energy Center,18064,Saint Paul,MN,October,115
Masego,NULL,NULL,NULL,Nashville,TN,October,140
"Presley, Perkins, Lewis & Cash",NULL,NULL,NULL,Kansas City,MO,October,115
Sesame Street Live,Family,NULL,NULL,Salina,KS,November,169
Sesame Street Live! Elmo & Friends Meet & Greet! From 1:30PM - 2:00PM,NULL,BJCC Concert Hall,17654,Birmingham,AL,November,160
Sesame Street Live! Elmo & Friends Meet & Greet! From 1:30PM - 2:00PM,NULL,BJCC Concert Hall,17654,Birmingham,AL,November,161
Sesame Street Live! Elmo & Friends Meet & Greet! From 9:30AM - 10:00AM,NULL,BJCC Concert Hall,17654,Birmingham,AL,November,161
Sesame Street Live! Lets Party!,NULL,Houma Terrebonne Civic Center,5000,Houma,LA,December,180
Sesame Street Live! Lets Party!,NULL,Houma Terrebonne Civic Center,5000,Houma,LA,December,180
Sesame Street Live! Elmo & Friends Meet & Greet! From 1:15PM to 2:00PM,NULL,The Centre,2500,Evansville,IN,September,108
Sesame Street Live! Elmo & Friends Meet & Greet! From 5:15PM to 6:00PM,NULL,The Centre,2500,Evansville,IN,September,108
Sesame Street Live! Lets Party!,NULL,Rosemont Theatre,18500,Rosemont,IL,October,123
Sesame Street Live! Lets Party!,NULL,Rosemont Theatre,4400,Rosemont,IL,October,123
Sesame Street Live! Lets Party!,NULL,Rosemont Theatre,18500,Rosemont,IL,October,123
Sesame Street Live! Lets Party!,NULL,Rosemont Theatre,4400,Rosemont,IL,October,123
Sesame Street Live! Lets Party!,NULL,Rosemont Theatre,18500,Rosemont,IL,October,124
Sesame Street Live! Lets Party!,NULL,Rosemont Theatre,4400,Rosemont,IL,October,124
Sesame Street Live! Lets Party!,NULL,Rosemont Theatre,18500,Rosemont,IL,October,122
Sesame Street Live! Lets Party!,NULL,Rosemont Theatre,4400,Rosemont,IL,October,122
Sesame Street Live! Lets Party!,NULL,Rosemont Theatre,18500,Rosemont,IL,October,122
Sesame Street Live! Lets Party!,NULL,Rosemont Theatre,4400,Rosemont,IL,October,122
Sesame Street Live! Lets Party!,NULL,Rosemont Theatre,18500,Rosemont,IL,October,123
Sesame Street Live! Lets Party!,NULL,Rosemont Theatre,4400,Rosemont,IL,October,123
Sesame Street Live! Lets Party!,NULL,Rosemont Theatre,18500,Rosemont,IL,October,124
Sesame Street Live! Lets Party!,NULL,Rosemont Theatre,4400,Rosemont,IL,October,124
Sesame Street Live! Lets Party!,NULL,Rosemont Theatre,18500,Rosemont,IL,October,124
Sesame Street Live! Lets Party!,NULL,Rosemont Theatre,4400,Rosemont,IL,October,124
Sesame Street Live! Let?? s Party! Official tourTAG,NULL,i Wireless Center,12000,Moline,IL,October,114
Sesame Street Live! Let?? s Party! Official tourTAG,NULL,i Wireless Center,12000,Moline,IL,October,114
Sesame Street Live! Lets Party!,NULL,UNO Lakefront Arena,10000,New Orleans,LA,December,178
Sesame Street Live! Lets Party!,NULL,UNO Lakefront Arena,10000,New Orleans,LA,December,178
Sesame Street Live! Lets Party!,NULL,UNO Lakefront Arena,10000,New Orleans,LA,December,179
Sesame Street Live! Lets Party!,NULL,UNO Lakefront Arena,10000,New Orleans,LA,December,179
Sesame Street Live! Let?? s Party! Official tourTAG,NULL,Xcel Energy Center,18064,Saint Paul,MN,October,117
Sesame Street Live! Let?? s Party! Official tourTAG,NULL,Xcel Energy Center,18064,Saint Paul,MN,October,117
Sesame Street Live! Make Your Magic,NULL,Prairie Capital Convention,7700,Springfield,IL,December,194
Sesame Street Live! Make Your Magic,NULL,Prairie Capital Convention,7700,Springfield,IL,December,193
Sesame Street Live! Make Your Magic,NULL,Prairie Capital Convention,7700,Springfield,IL,December,193
Sesame Street Live! Make Your Magic,NULL,Prairie Capital Convention,7700,Springfield,IL,December,193
Sesame Street Live! Make Your Magic,NULL,Prairie Capital Convention,7700,Springfield,IL,December,194
Sesame Street Live! Elmo & Friends Meet & Greet! From 9:30AM - 10:00AM,NULL,BJCC Concert Hall,17654,Birmingham,AL,November,161
Sesame Street Live! Elmo & Friends Meet & Greet! From 1:30PM - 2:00PM,NULL,BJCC Concert Hall,17654,Birmingham,AL,November,161
Sesame Street Live! Elmo & Friends Meet & Greet! From 1:30PM - 2:00PM,NULL,BJCC Concert Hall,17654,Birmingham,AL,November,160
Sesame Street Live! Make Your Magic,NULL,Intrust Bank Arena,NULL,Wichita,KS,December,173
Sesame Street Live! Elmo & Friends Meet & Greet From 1:30PM to 2:00PM,NULL,Landers Center,8400,Southaven,MS,December,187
Sesame Street Live! Elmo & Friends Meet & Greet From 9:30AM to 10:00AM,NULL,Landers Center,8400,Southaven,MS,December,186
Sesame Street Live! Elmo & Friends Meet & Greet From 1:30PM to 2:00PM,NULL,Landers Center,8400,Southaven,MS,December,186
Sesame Street Live! Elmo & Friends Meet & Greet From 4:30PM to 5:00PM,NULL,Landers Center,8400,Southaven,MS,December,185
Sesame Street Live! Elmo & Friends Meet & Greet! From 1:00pm - 1:30pm,NULL,Montgomery Performing Arts Center,NULL,Montgomery,AL,November,164
Sesame Street Live! Elmo & Friends Meet & Greet! From 5:00PM - 5:30PM,NULL,Montgomery Performing Arts Center,NULL,Montgomery,AL,November,164
Sesame Street Live! Elmo & Friends Meet & Greet! From 9:30-10:00AM,NULL,Pensacola Bay Center,12000,Pensacola,FL,November,142
Sesame Street Live! Elmo & Friends Meet & Greet! From 5:00-5:30PM,NULL,Pensacola Bay Center,12000,Pensacola,FL,November,142
Sesame Street Live! Elmo & Friends Meet & Greet from 5:30pm-6:00pm,NULL,Verizon Arena - North Little Rock,18000,North Little Rock,AR,December,183
Sesame Street Live! Make Your Magic,NULL,Verizon Arena - North Little Rock,18000,North Little Rock,AR,December,183
Sesame Street Live! Elmo Friends Meet & Greet! From 1:30 pm - 2:00 pm,NULL,Von Braun Center Concert Hall,NULL,Huntsville,AL,November,165
Sesame Street Live! Elmo Friends Meet & Greet! From 9:30am - 10:00am,NULL,Von Braun Center Concert Hall,NULL,Huntsville,AL,November,166
Sesame Street Live! Elmo Friends Meet & Greet! From 1:30 pm - 2:00 pm,NULL,Von Braun Center Concert Hall,NULL,Huntsville,AL,November,166
The Beach Boys,Classic Rock,Von Braun Center Concert Hall,NULL,Huntsville,AL,November,154
The King Romeo Santos,NULL,Allstate Arena,18500,Rosemont,IL,October,126
The King Romeo Santos,NULL,American Airlines Center - TX,18584,Dallas,TX,October,131
The King Romeo Santos,NULL,Laredo Energy Arena,10000,Laredo,TX,October,129
The Oak Ridge Boys Shine The Light Tour,NULL,The Maryland Theatre,NULL,Hagerstown,MD,November,159
Tim Allen,Comedy,Topeka Performing Arts Center,2448,Topeka,KS,February,255
Wanna One,K-Pop,Rosemont Theatre,18500,Rosemont,IL,June,17
Wanna One,K-Pop,Rosemont Theatre,4400,Rosemont,IL,June,17
Sesame Street Live! Make Your Magic,NULL,Prairie Capital Convention,7700,Springfield,IL,December,193
Sesame Street Live! Make Your Magic,NULL,Prairie Capital Convention,7700,Springfield,IL,December,194
The Axe Band,NULL,NULL,NULL,Irving,TX,July,25
Sesame Street Live! Make Your Magic,NULL,Prairie Capital Convention,7700,Springfield,IL,December,194
Dead Kennedys,NULL,Ogden Theatre,750,Denver,CO,September,87
Harlem Globetrotters Magic Pass,NULL,EnergySolutions Arena,19911,Salt Lake City,UT,November,144
Harlem Globetrotters Magic Pass,NULL,EnergySolutions Arena,19911,Salt Lake City,UT,November,144
Harlem Globetrotters World Tour,NULL,EnergySolutions Arena,19911,Salt Lake City,UT,November,144
Harlem Globetrotters World Tour,NULL,EnergySolutions Arena,19911,Salt Lake City,UT,November,144
Keith Harkin,NULL,Musica,NULL,Akron,OH,November,165
Rezz,EDM,Bayou Music Center,3464,Houston,TX,November,162
REZZ - Certain Kind of Magic Tour,NULL,House of Blues - Boston,2425,Boston,MA,September,95
Rezz: Certain Kind of Magic Tour,NULL,The Armory - Minneapolis,NULL,Minneapolis,MN,October,141
"Rick Springfield, Loverboy, Gin Blossoms, Tommy Tutone: Kool Koncert",NULL,Pepsi Center,21000,Denver,CO,September,102
Seven Lions,EDM,Revolution Concert Hall and Event Center,NULL,Garden City,ID,October,119
Aubrey & The Three Migos Tour,NULL,Barclays Center,18103,Brooklyn,NY,September,81
ADULT SWIM PRESENTS: The Pillows Feat. FLCL. Mono Me You Sun Tour,NULL,Moore Theatre,1420,Seattle,WA,July,33
iHeartRadio Music Festival,Pop,City of Rock Las Vegas,NULL,Las Vegas,NV,September,102
iHeartRadio Music Festival,Pop,T-Mobile Arena,NULL,Las Vegas,NV,September,101
Interpol with The Kills and Sunflower Bean,NULL,Hollywood Bowl,17376,Hollywood,CA,October,114
Lost Dog Street Band W/ Guests,NULL,Tractor Tavern,550,Seattle,WA,September,99
Monster Jam Pit Pass: Preshow Pit Party From 10:30am - 12:00pm,NULL,HP Pavilion at San Jose,19190,San Jose,CA,September,82
Monster Jam Triple Threat Series,NULL,HP Pavilion at San Jose,19190,San Jose,CA,August,80
Monster Jam Triple Threat Series,NULL,HP Pavilion at San Jose,19190,San Jose,CA,September,81
Monster Jam Triple Threat Series,NULL,HP Pavilion at San Jose,19190,San Jose,CA,September,81
REZZ,EDM,Shrine Expo Center,NULL,Los Angeles,CA,November,165
Romeo Santos  'The King Romeo Santos',NULL,MGM Grand Garden Arena,17157,Las Vegas,NV,September,95
Seven Lions,EDM,Bill Graham Civic Auditorium,7000,San Francisco,CA,October,116
The King Romeo Santos,NULL,Golden 1 Center,NULL,Sacramento,CA,September,103
The King Romeo Santos,NULL,Honda Center,18900,Anaheim,CA,September,98
The King Romeo Santos,NULL,HP Pavilion at San Jose,19190,San Jose,CA,September,99
The King Romeo Santos,NULL,Wamu Theater - Seattle,7000,Seattle,WA,September,101
GHOST,Metal,NULL,NULL,Las Vegas,NV,November,158
Sacramento Republic FC vs. Fresno FC,NULL,Bonney Field,NULL,Sacramento,CA,August,53
Sacramento Republic FC vs. LA Galaxy II,NULL,Bonney Field,NULL,Sacramento,CA,August,67
Sacramento Republic FC vs. Las Vegas Lights,NULL,Bonney Field,NULL,Sacramento,CA,October,123
Sacramento Republic FC vs. OKC Energy FC,NULL,Bonney Field,NULL,Sacramento,CA,July,39
Sacramento Republic FC vs. Portland Timbers 2,NULL,Bonney Field,NULL,Sacramento,CA,September,109
Sacramento Republic FC vs. Real Monarchs SLC,NULL,Bonney Field,NULL,Sacramento,CA,July,25
Sacramento Republic FC vs. Rio Grande Valley FC,NULL,Bonney Field,NULL,Sacramento,CA,August,60
Sacramento Republic FC vs. Seattle Sounders 2,NULL,Bonney Field,NULL,Sacramento,CA,September,88
Sacramento Republic FC vs. Swope Park Rangers,NULL,Bonney Field,NULL,Sacramento,CA,October,113
"1776 The Musical: Music & Lyrics Sherman Edwards, Book Peter Stone",NULL,NULL,NULL,Northridge,CA,February,241
"1776 The Musical: Music & Lyrics Sherman Edwards, Book Peter Stone",NULL,NULL,NULL,Northridge,CA,February,242
"1776 The Musical: Music & Lyrics Sherman Edwards, Book Peter Stone",NULL,NULL,NULL,Northridge,CA,February,242
"1776 The Musical: Music & Lyrics Sherman Edwards, Book Peter Stone",NULL,NULL,NULL,Northridge,CA,February,243
Aida Cuevas Totalmente Juan Gabriel with Mariachi Juvenil Tecalitl?? n,NULL,NULL,NULL,Northridge,CA,September,109
"Antonio Sanchez - Bad Hombre, Featuring Migration",NULL,NULL,NULL,Northridge,CA,March,275
"Antonio Sanchez - Bad Hombre, Featuring Migration",NULL,NULL,NULL,Northridge,CA,March,274
Arturo OFarrill and the Afro Latin Jazz Orchestra - Changu??  Majadero,NULL,NULL,NULL,Northridge,CA,February,235
"Aspen Santa Fe Ballet - Work by Ekman, Melo, and Arias",NULL,NULL,NULL,Northridge,CA,January,221
Ballet Folkl?? rico Universidad De Colima Patria Grande,NULL,NULL,NULL,Northridge,CA,May,325
Ballet Preljocaj La Fresque,NULL,NULL,NULL,Northridge,CA,April,310
Bell-Isserlis-Denk Trio - Chamber Music,NULL,NULL,NULL,Northridge,CA,May,330
Branford Marsalis Quartet,NULL,NULL,NULL,Northridge,CA,January,226
Canadian Brass Christmas Time is Here,NULL,NULL,NULL,Northridge,CA,December,182
"Chamber Music Society Lincoln Center - Russian Mastery, Wu Han, Piano",NULL,NULL,NULL,Northridge,CA,March,268
Christian McBride Big Band,NULL,NULL,NULL,Northridge,CA,April,318
"Colburn Orchestra - Esa-Pekka Salonen, Conductor",NULL,NULL,NULL,Northridge,CA,January,233
"Colburn Orchestra - Yehuda Gilad, Music Director & Conductor",NULL,NULL,NULL,Northridge,CA,December,180
"Damien Sneed - We Shall Overcome - Celebrating Martin Luther King, Jr.",NULL,NULL,NULL,Northridge,CA,January,228
Dianne Reeves Christmas Time is Here,NULL,NULL,NULL,Northridge,CA,December,186
Disneys Silly Symphony - Animated Shorts with Live Orchestra,NULL,NULL,NULL,Northridge,CA,March,271
Fiesta Con Sonia De Los Santos - A Celebration of the Americas,NULL,NULL,NULL,Northridge,CA,May,327
Las Cafeteras,NULL,NULL,NULL,Northridge,CA,May,326
Lea Salonga,NULL,NULL,NULL,Northridge,CA,May,344
"Los Angeles Chamber Orchestra - Jennifer Koh, Violin",NULL,NULL,NULL,Northridge,CA,November,157
"Mariinsky Orchestra, Valery Gergiev, Conductor - All-Stravinsky Prog.",NULL,NULL,NULL,Northridge,CA,October,135
Martha Graham Dance Company - The EVE Project,NULL,NULL,NULL,Northridge,CA,March,263
"Moon River and the Music of Henry Mancini, Hosted by Monica Mancini",NULL,NULL,NULL,Northridge,CA,October,123
Nochebuena featuring Ballet Folkl?? rico de Los Angeles,NULL,NULL,NULL,Northridge,CA,December,179
Red Baraat Festival of Colors Celebrating the Hindu Holiday of Holi,NULL,NULL,NULL,Northridge,CA,March,289
"Royal Scottish National Orchestra - Danny Elfman, Composer",NULL,NULL,NULL,Northridge,CA,April,296
Sergio Mendes And Ana Tijouxs Roja y Negro (Red & Black),NULL,NULL,NULL,Northridge,CA,October,137
Silkroad Ensemble Heroes Take Their Stands 20th Anniversary,NULL,NULL,NULL,Northridge,CA,April,320
Singin in the Rain: Music N. Brown Lyrics A. Freed,NULL,NULL,NULL,Northridge,CA,April,304
Singin in the Rain: Music N. Brown Lyrics A. Freed,NULL,NULL,NULL,Northridge,CA,April,305
Singin in the Rain: Music N. Brown Lyrics A. Freed,NULL,NULL,NULL,Northridge,CA,April,305
Singin in the Rain: Music N. Brown Lyrics A. Freed,NULL,NULL,NULL,Northridge,CA,April,306
Soweto Gospel Choir Songs of the Free Honoring Nelson Mandela,NULL,NULL,NULL,Northridge,CA,October,117
Susana Baca with Banda Magda - Guest Appearance by Michael League,NULL,NULL,NULL,Northridge,CA,February,255
Tempesta di Mare Baroque Players - Chamber Music from Venice & Naples,NULL,NULL,NULL,Northridge,CA,February,247
"The Music of Harold Arlen, Wonderful Wizard of Song",NULL,NULL,NULL,Northridge,CA,December,172
The Okee Dokee Brothers - Winter,NULL,Soldiers and Sailors Hall,NULL,Northridge,CA,December,173
The Phantom of the Opera Film with Live Music - New West Symphony,NULL,NULL,NULL,Northridge,CA,November,144
Vicente Amigo - Flamenco Guitarist,NULL,NULL,NULL,Northridge,CA,October,127
Wild Up - of Ascension,NULL,NULL,NULL,Northridge,CA,November,149
Wild Up - of Ascension,NULL,NULL,NULL,Northridge,CA,November,151
Wild Up - of Ascension,NULL,NULL,NULL,Northridge,CA,November,151
Estas Tonne,NULL,Hult Center for the Performing Arts,4998,Eugene,OR,November,158
The Nashville Moth Storyslam: Endings,NULL,The Basement East,NULL,Nashville,TN,June,7
Interpol,Indie,Madison Square Garden,20000,New York,NY,February,249
Wanna One,K-Pop,Verizon Theatre at Grand Prairie,6350,Grand Prairie,TX,June,14
Viva Los Jokes - Stand Up Comedy in the Preview Lounge,NULL,Fox Performing Arts Center,NULL,Riverside,CA,June,0
Tracyanne & Danny,NULL,Terminal West,NULL,Atlanta,GA,June,2
